{
  "id": "1",
  "title": "Demographic data<br>결혼, 교육 등 인구학적 정보",
  "pages": [
    {
      "id": "1",
      "title": "인구학적 정보(Demographic data)",
      "surveys": [{
          "id": "birthday",
          "title": "생년월일",
          "type": "date1",
          "format": "YYYY-MM-DD",
          "formatType": "date",
          "optional": "false",
          "optionalText": "선택하지않음"
        },
        {
          "id": "age",
          "type": "input1",
          "title": "나이",
          "cssClass": "grid grid-2",
          "list": [{
            "id": "0",
            "label": "만",
            "lastLabel": "세",
            "placeholder": " "
          }]
        },
        {
          "id": "initial",
          "type": "input1",
          "title": "이니셜",
          "cssClass": "block",
          "list": [{
            "id": "0"
          }]
        },
        {
          "id": "sex",
          "type": "radio1",
          "title": "성별",
          "cssClass": "grid grid-2",
          "radioType": "radio",
          "list": [{
              "id": "0",
              "title": "남성",
              "role": "selector"
            },
            {
              "id": "1",
              "title": "여성",
              "role": "selector"
            }
          ]
        },
        {
          "id": "address",
          "type": "input3",
          "title": "주소",
          "cssClass": "block",
          "list": [{
              "id": "address1",
              "placeholder": "광역시/도"
            },
            {
              "id": "address2",
              "placeholder": "시/군/구"
            }
          ]
        },
        {
          "id": "marriage",
          "type": "radio1",
          "title": "결혼상태",
          "cssClass": "grid grid-2",
          "radioType": "radio",
          "list": [{
              "id": "1",
              "title": "기혼 및 동거",
              "role": "selector"
            },
            {
              "id": "2",
              "title": "기혼 및 별거",
              "role": "selector"
            },
            {
              "id": "3",
              "title": "이혼",
              "role": "selector"
            },
            {
              "id": "4",
              "title": "사별",
              "role": "selector"
            },
            {
              "id": "5",
              "title": "미혼",
              "role": "selector"
            },
            {
              "id": "6",
              "title": "미혼 및 동거",
              "role": "selector"
            },
            {
              "id": "7",
              "title": "재혼",
              "role": "selector"
            },
            {
              "id": "8",
              "title": "기타",
              "role": "etc"
            }
          ]
        },
        {
          "id": "eduyr",
          "type": "input1",
          "title": "교육연한",
          "cssClass": "grid grid-2",
          "list": [{
            "id": "0",
            "lastLabel": "년",
            "placeholder": " "
          }]
        },
        {
          "id": "edulev",
          "type": "radio1",
          "cssClass": "grid",
          "radioType": "radio",
          "list": [{
              "id": "1",
              "title": "초재",
              "role": "selector"
            },
            {
              "id": "2",
              "title": "초졸",
              "role": "selector"
            },
            {
              "id": "3",
              "title": "중재",
              "role": "selector"
            },
            {
              "id": "4",
              "title": "중졸",
              "role": "selector"
            },
            {
              "id": "5",
              "title": "고재",
              "role": "selector"
            },
            {
              "id": "6",
              "title": "고졸",
              "role": "selector"
            },
            {
              "id": "7",
              "title": "전문대재",
              "role": "selector"
            },
            {
              "id": "8",
              "title": "전문대졸",
              "role": "selector"
            },
            {
              "id": "9",
              "title": "대재",
              "role": "selector"
            },
            {
              "id": "10",
              "title": "대졸",
              "role": "selector"
            },
            {
              "id": "11",
              "title": "석재",
              "role": "selector"
            },
            {
              "id": "12",
              "title": "석사졸",
              "role": "selector"
            },
            {
              "id": "13",
              "title": "박재",
              "role": "selector"
            },
            {
              "id": "14",
              "title": "박사졸",
              "role": "selector"
            }
          ]
        }
      ]
    },
    {
      "id": "2",
      "surveys": [{
          "id": "beforejob",
          "type": "input1",
          "title": "소방공무원 임용전 직업",
          "cssClass": "block",
          "list": [{
            "id": "0"
          }]
        },
        {
          "id": "hired_date",
          "type": "date1",
          "title": "소방공무원 임용 시기",
          "format": "YYYY-MM",
          "formatType": "date",
          "optional": "false",
          "optionalText": "선택하지않음"
        },
        {
          "id": "hired_type",
          "type": "radio1",
          "title": "소방공무원 임용 방식",
          "cssClass": "block",
          "radioType": "radio",
          "list": [{
              "id": "1",
              "title": "공채",
              "role": "selector"
            },
            {
              "id": "2",
              "title": "특채",
              "role": "etc",
              "placeholder": "사유입력"
            },
            {
              "id": "3",
              "title": "소방간부후보생",
              "role": "selector"
            },
            {
              "id": "4",
              "title": "운전직 전환",
              "role": "selector"
            },
            {
              "id": "5",
              "title": "기타",
              "role": "etc"
            }
          ]
        },
        {
          "id": "hired_pos",
          "type": "radio1",
          "title": "임용시 직위",
          "cssClass": "grid grid-2",
          "radioType": "radio",
          "list": [{
              "id": "1",
              "title": "소방사",
              "role": "selector"
            },
            {
              "id": "2",
              "title": "소방교",
              "role": "selector"
            },
            {
              "id": "3",
              "title": "소방장",
              "role": "selector"
            },
            {
              "id": "4",
              "title": "소방위",
              "role": "selector"
            },
            {
              "id": "5",
              "title": "소방경",
              "role": "selector"
            },
            {
              "id": "6",
              "title": "소방령",
              "role": "selector"
            },
            {
              "id": "7",
              "title": "소방정",
              "role": "selector"
            },
            {
              "id": "8",
              "title": "소방준감",
              "role": "selector"
            },
            {
              "id": "9",
              "title": "소방감",
              "role": "selector"
            },
            {
              "id": "10",
              "title": "소방정감",
              "role": "selector"
            }
          ]
        },
        {
          "id": "cur_pos",
          "type": "radio1",
          "title": "현재 직위",
          "cssClass": "grid grid-2",
          "radioType": "radio",
          "list": [{
              "id": "1",
              "title": "소방사",
              "role": "selector"
            },
            {
              "id": "2",
              "title": "소방교",
              "role": "selector"
            },
            {
              "id": "3",
              "title": "소방장",
              "role": "selector"
            },
            {
              "id": "4",
              "title": "소방위",
              "role": "selector"
            },
            {
              "id": "5",
              "title": "소방경",
              "role": "selector"
            },
            {
              "id": "6",
              "title": "소방령",
              "role": "selector"
            },
            {
              "id": "7",
              "title": "소방정",
              "role": "selector"
            },
            {
              "id": "8",
              "title": "소방준감",
              "role": "selector"
            },
            {
              "id": "9",
              "title": "소방감",
              "role": "selector"
            },
            {
              "id": "10",
              "title": "소방정감",
              "role": "selector"
            }
          ]
        },
        {
          "id": "cur_loc1",
          "type": "input1",
          "title": "현재 근무지",
          "cssClass": "block",
          "list": [{
            "id": "0"
          }]
        },
        {
          "id": "cur_loc2",
          "type": "radio1",
          "cssClass": "grid grid-2",
          "radioType": "radio",
          "list": [{
              "id": "1",
              "title": "지방직",
              "role": "selector"
            },
            {
              "id": "2",
              "title": "중앙직",
              "role": "selector"
            }
          ]
        },
        {
          "id": "cur_start",
          "type": "input3",
          "title": "현재근무지 근무기간",
          "cssClass": "grid",
          "list": [{
              "id": "cur_start_y",
              "lastLabel": "년",
              "placeholder": "00"
            },
            {
              "id": "cur_start_m",
              "lastLabel": "월 ~ 현재",
              "placeholder": "00"
            }
          ]
        },
        {
          "id": "cur_dur",
          "type": "input3",
          "cssClass": "grid",
          "list": [{
              "id": "cur_dur_y",
              "label": "(",
              "lastLabel": "년",
              "placeholder": "00"
            },
            {
              "id": "cur_dur_m",
              "lastLabel": "개월 )",
              "placeholder": "00"
            }
          ]
        },
        {
          "id": "cur_job",
          "type": "check1",
          "title": "현재 담당 업무",
          "cssClass": "grid grid-2",
          "list": [{
              "id": "1",
              "title": "화재진압",
              "role": "selector"
            },
            {
              "id": "2",
              "title": "구조",
              "role": "selector"
            },
            {
              "id": "3",
              "title": "구급",
              "role": "selector"
            },
            {
              "id": "4",
              "title": "행정",
              "role": "selector"
            },
            {
              "id": "5",
              "title": "운전",
              "role": "selector"
            },
            {
              "id": "6",
              "title": "기타",
              "role": "etc"
            }
          ]
        }
      ]
    },
    {
      "id": "3",
      "surveys": [{
          "id": "call_wk",
          "type": "input1",
          "title": "1 주일간 평균 출동 회수",
          "cssClass": "grid grid-2",
          "list": [{
            "id": "0",
            "lastLabel": "회"
          }]
        },
        {
          "id": "today_time",
          "type": "date1",
          "title": "금일 방문시간",
          "format": "H:mm",
          "formatType": "time24",
          "optional": "false",
          "optionalText": "선택하지않음"
        },
        {
          "id": "today_type",
          "type": "radio1",
          "cssClass": "block",
          "radioType": "radio",
          "list": [{
              "id": "1",
              "title": "근무 전 방문",
              "role": "selector"
            },
            {
              "id": "2",
              "title": "근무 중 방문",
              "role": "selector"
            },
            {
              "id": "3",
              "title": "근무 후 방문",
              "role": "selector"
            },
            {
              "id": "4",
              "title": "비번",
              "role": "selector"
            },
            {
              "id": "5",
              "title": "공가",
              "role": "selector"
            }
          ]
        },
        {
          "id": "work_7",
          "type": "radio1",
          "title": "지난 한주의 근무 상황",
          "subTitle": "7일 전 근무 상황",
          "cssClass": "grid grid-2",
          "radioType": "radio",
          "list": [{
              "id": "0",
              "title": "주간(9시출근)",
              "role": "selector"
            },
            {
              "id": "1",
              "title": "야간",
              "role": "selector"
            },
            {
              "id": "2",
              "title": "당직",
              "role": "selector"
            },
            {
              "id": "3",
              "title": "비번",
              "role": "selector"
            },
            {
              "id": "4",
              "title": "일근(7시출근)",
              "role": "selector"
            },
            {
              "id": "5",
              "title": "휴무",
              "role": "selector"
            },
            {
              "id": "6",
              "title": "기타",
              "role": "etc"
            }
          ]
        },
        {
          "id": "work_6",
          "type": "radio1",
          "subTitle": "6일 전 근무 상황",
          "cssClass": "grid grid-2",
          "radioType": "radio",
          "list": [{
              "id": "0",
              "title": "주간(9시출근)",
              "role": "selector"
            },
            {
              "id": "1",
              "title": "야간",
              "role": "selector"
            },
            {
              "id": "2",
              "title": "당직",
              "role": "selector"
            },
            {
              "id": "3",
              "title": "비번",
              "role": "selector"
            },
            {
              "id": "4",
              "title": "일근(7시출근)",
              "role": "selector"
            },
            {
              "id": "5",
              "title": "휴무",
              "role": "selector"
            },
            {
              "id": "6",
              "title": "기타",
              "role": "etc"
            }
          ]
        },
        {
          "id": "work_5",
          "type": "radio1",
          "subTitle": "5일 전 근무 상황",
          "cssClass": "grid grid-2",
          "radioType": "radio",
          "list": [{
              "id": "0",
              "title": "주간(9시출근)",
              "role": "selector"
            },
            {
              "id": "1",
              "title": "야간",
              "role": "selector"
            },
            {
              "id": "2",
              "title": "당직",
              "role": "selector"
            },
            {
              "id": "3",
              "title": "비번",
              "role": "selector"
            },
            {
              "id": "4",
              "title": "일근(7시출근)",
              "role": "selector"
            },
            {
              "id": "5",
              "title": "휴무",
              "role": "selector"
            },
            {
              "id": "6",
              "title": "기타",
              "role": "etc"
            }
          ]
        },
        {
          "id": "work_4",
          "type": "radio1",
          "subTitle": "4일 전 근무 상황",
          "cssClass": "grid grid-2",
          "radioType": "radio",
          "list": [{
              "id": "0",
              "title": "주간(9시출근)",
              "role": "selector"
            },
            {
              "id": "1",
              "title": "야간",
              "role": "selector"
            },
            {
              "id": "2",
              "title": "당직",
              "role": "selector"
            },
            {
              "id": "3",
              "title": "비번",
              "role": "selector"
            },
            {
              "id": "4",
              "title": "일근(7시출근)",
              "role": "selector"
            },
            {
              "id": "5",
              "title": "휴무",
              "role": "selector"
            },
            {
              "id": "6",
              "title": "기타",
              "role": "etc"
            }
          ]
        },
        {
          "id": "work_3",
          "type": "radio1",
          "subTitle": "3일 전 근무 상황",
          "cssClass": "grid grid-2",
          "radioType": "radio",
          "list": [{
              "id": "0",
              "title": "주간(9시출근)",
              "role": "selector"
            },
            {
              "id": "1",
              "title": "야간",
              "role": "selector"
            },
            {
              "id": "2",
              "title": "당직",
              "role": "selector"
            },
            {
              "id": "3",
              "title": "비번",
              "role": "selector"
            },
            {
              "id": "4",
              "title": "일근(7시출근)",
              "role": "selector"
            },
            {
              "id": "5",
              "title": "휴무",
              "role": "selector"
            },
            {
              "id": "6",
              "title": "기타",
              "role": "etc"
            }
          ]
        },
        {
          "id": "work_2",
          "type": "radio1",
          "subTitle": "2일 전 근무 상황",
          "cssClass": "grid grid-2",
          "radioType": "radio",
          "list": [{
              "id": "0",
              "title": "주간(9시출근)",
              "role": "selector"
            },
            {
              "id": "1",
              "title": "야간",
              "role": "selector"
            },
            {
              "id": "2",
              "title": "당직",
              "role": "selector"
            },
            {
              "id": "3",
              "title": "비번",
              "role": "selector"
            },
            {
              "id": "4",
              "title": "일근(7시출근)",
              "role": "selector"
            },
            {
              "id": "5",
              "title": "휴무",
              "role": "selector"
            },
            {
              "id": "6",
              "title": "기타",
              "role": "etc"
            }
          ]
        },
        {
          "id": "work_1",
          "type": "radio1",
          "subTitle": "1일 전 근무 상황",
          "cssClass": "grid grid-2",
          "radioType": "radio",
          "list": [{
              "id": "0",
              "title": "주간(9시출근)",
              "role": "selector"
            },
            {
              "id": "1",
              "title": "야간",
              "role": "selector"
            },
            {
              "id": "2",
              "title": "당직",
              "role": "selector"
            },
            {
              "id": "3",
              "title": "비번",
              "role": "selector"
            },
            {
              "id": "4",
              "title": "일근(7시출근)",
              "role": "selector"
            },
            {
              "id": "5",
              "title": "휴무",
              "role": "selector"
            },
            {
              "id": "6",
              "title": "기타",
              "role": "etc"
            }
          ]
        },
        {
          "id": "work_0",
          "type": "radio1",
          "subTitle": "오늘 근무 상황",
          "cssClass": "grid grid-2",
          "radioType": "radio",
          "list": [{
              "id": "0",
              "title": "주간(9시출근)",
              "role": "selector"
            },
            {
              "id": "1",
              "title": "야간",
              "role": "selector"
            },
            {
              "id": "2",
              "title": "당직",
              "role": "selector"
            },
            {
              "id": "3",
              "title": "비번",
              "role": "selector"
            },
            {
              "id": "4",
              "title": "일근(7시출근)",
              "role": "selector"
            },
            {
              "id": "5",
              "title": "휴무",
              "role": "selector"
            },
            {
              "id": "6",
              "title": "기타",
              "role": "etc"
            }
          ]
        }
      ]
    },
    {
      "id": "4",
      "title": "과거 근무경력",
      "subTitle": "한 근무지에서 담당 업무가 바뀐 경우 다음 번호에 기재함.<br>과거에서 현재순서",
      "surveys": [{
          "id": "past",
          "type": "more2",
          "cssClass": "block",
          "maxLangth": 15,
          "addBtnTitle": " + 과거 근무지 추가하기",
          "groupTitle": "과거 근무지",
          "group": [{
              "id": "nm",
              "type": "input1",
              "title": "근무지명",
              "cssClass": "block",
              "list": [{
                "id": "0"
              }]
            },
            {
              "id": "yr",
              "type": "input1",
              "title": "근무기간",
              "cssClass": "grid",
              "list": [{
                  "id": "0",
                  "lastLabel": "년",
                  "placeholder": "년"
                },
                {
                  "id": "1",
                  "lastLabel": "개월",
                  "placeholder": "개월"
                }
              ]
            },
            {
              "id": "duty",
              "type": "radio1",
              "title": "담당업무",
              "cssClass": "grid grid-2",
              "radioType": "radio",
              "list": [{
                  "id": "1",
                  "title": "화재진압",
                  "role": "selector"
                },
                {
                  "id": "2",
                  "title": "구조",
                  "role": "selector"
                },
                {
                  "id": "3",
                  "title": "구급",
                  "role": "selector"
                },
                {
                  "id": "4",
                  "title": "행정",
                  "role": "selector"
                },
                {
                  "id": "5",
                  "title": "기타",
                  "role": "etc"
                }
              ]
            },
            {
              "id": "cy",
              "type": "radio1",
              "title": "근무형태",
              "cssClass": "grid grid-2",
              "radioType": "radio",
              "list": [{
                  "id": "1",
                  "title": "2조 2교대(당/비)",
                  "role": "selector"
                },
                {
                  "id": "2",
                  "title": "3조 2교대(6일주기)",
                  "role": "selector"
                },
                {
                  "id": "3",
                  "title": "3조 2교대(9일주기)",
                  "role": "selector"
                },
                {
                  "id": "4",
                  "title": "3조 2교대(21일주기)",
                  "role": "selector"
                },
                {
                  "id": "5",
                  "title": "비교대근무(주간)",
                  "role": "selector"
                },
                {
                  "id": "6",
                  "title": "기타",
                  "role": "etc"
                }
              ]
            },
            {
              "id": "str",
              "type": "range1",
              "title": "Stress Intensity Scale",
              "min": "0",
              "max": "100",
              "step": "10",
              "snaps": true,
              "pin": true
            }
          ],
          "lists": []
        },
        {
          "id": "best_duty",
          "type": "radio1",
          "title": "맡았던 업무 중에서 가장 스트레스가 되었던 업무",
          "cssClass": "grid grid-2",
          "radioType": "radio",
          "list": [{
              "id": "1",
              "title": "화재진압",
              "role": "selector"
            },
            {
              "id": "2",
              "title": "구조",
              "role": "selector"
            },
            {
              "id": "3",
              "title": "구급",
              "role": "selector"
            },
            {
              "id": "4",
              "title": "행정",
              "role": "selector"
            },
            {
              "id": "5",
              "title": "기타",
              "role": "etc"
            }
          ]
        },
        {
          "id": "best_str",
          "type": "range1",
          "title": "Stress Intensity Scale",
          "min": "0",
          "max": "100",
          "step": "10",
          "snaps": true,
          "pin": true
        }
      ]
    },
    {
      "id": "5",
      "surveys": [{
          "id": "living",
          "type": "radio1",
          "title": "현재 동거 가족",
          "cssClass": "grid grid-2",
          "radioType": "radio",
          "list": [{
              "id": "1",
              "title": "혼자 거주",
              "role": "selector"
            },
            {
              "id": "2",
              "title": "배우자와 거주",
              "role": "selector"
            },
            {
              "id": "3",
              "title": "미혼자녀와 거주",
              "role": "selector"
            },
            {
              "id": "4",
              "title": "기혼자녀와 거주",
              "role": "selector"
            },
            {
              "id": "5",
              "title": "부모와 거주",
              "role": "selector"
            },
            {
              "id": "6",
              "title": "형제와 거주",
              "role": "selector"
            },
            {
              "id": "7",
              "title": "기타",
              "role": "etc"
            }
          ]
        },
        {
          "id": "income_i",
          "type": "radio1",
          "title": "소득(본인)",
          "cssClass": "block",
          "radioType": "radio",
          "list": [{
              "id": "1",
              "title": "월 평균 0–80만원미만",
              "role": "selector"
            },
            {
              "id": "2",
              "title": "월 평균 80–150만원미만",
              "role": "selector"
            },
            {
              "id": "3",
              "title": "월 평균 150-300만원미만",
              "role": "selector"
            },
            {
              "id": "4",
              "title": "월 평균 300-500만원미만",
              "role": "selector"
            },
            {
              "id": "5",
              "title": "월 평균 500만원이상",
              "role": "selector"
            },
            {
              "id": "6",
              "title": "기타",
              "role": "etc"
            }
          ]
        },
        {
          "id": "income_f",
          "type": "radio1",
          "title": "소득(부모/가구)",
          "cssClass": "block",
          "radioType": "radio",
          "list": [{
              "id": "1",
              "title": "월 평균 0–80만원미만",
              "role": "selector"
            },
            {
              "id": "2",
              "title": "월 평균 80–150만원미만",
              "role": "selector"
            },
            {
              "id": "3",
              "title": "월 평균 150-300만원미만",
              "role": "selector"
            },
            {
              "id": "4",
              "title": "월 평균 300-500만원미만",
              "role": "selector"
            },
            {
              "id": "5",
              "title": "월 평균 500만원이상",
              "role": "selector"
            },
            {
              "id": "6",
              "title": "기타",
              "role": "etc"
            }
          ]
        },
        {
          "id": "living_f",
          "type": "input2",
          "title": "아버지 생존여부",
          "saveMe": true,
          "cssClass": "block",
          "activeTitle": "&nbsp;",
          "activeTrueText": "아니오",
          "activeFalseText": "예",
          "list": [{
              "id": "living_f_age",
              "label": "환자나이",
              "lastLabel": "세"
            },
            {
              "id": "living_f_t",
              "label": "사망원인"
            }
          ]
        },
        {
          "id": "living_m",
          "type": "input2",
          "title": "어머니 생존여부",
          "saveMe": true,
          "cssClass": "block",
          "activeTitle": "&nbsp;",
          "activeTrueText": "아니오",
          "activeFalseText": "예",
          "list": [{
              "id": "living_m_age",
              "label": "환자나이",
              "lastLabel": "세"
            },
            {
              "id": "living_m_t",
              "label": "사망원인"
            }
          ]
        },
        {
          "id": "living_si",
          "type": "input2",
          "title": "형제자매 생존여부",
          "saveMe": true,
          "cssClass": "block",
          "activeTitle": "&nbsp;",
          "activeTrueText": "사망한 형제가 있음",
          "activeFalseText": "모두 생존",
          "list": [{
              "id": "living_si_age",
              "label": "환자나이",
              "lastLabel": "세"
            },
            {
              "id": "living_si_t",
              "label": "사망원인"
            }
          ]
        }
      ]
    }
  ]
}
