{
    "id": "3",
    "title": "경도 외상성뇌손상 평가<br>(Mild traumatic brain injury screen)",
    "pages": [
      {
        "id": "1",
        "title": "1. 살면서 아래 질문 드리는 것과 같이 머리를 다치신 경험이 있으십니까?<br>(두부외상사건 경험여부)",
        "surveys": [
          {
            "id": "mtbi1-1",
            "title": "1) 머리에 충격이 가해진 경우 (the head being struck)",
            "subTitle": "예) 물건 등이 떨어지거나 맞거나 해서 머리에 충격이 가해진 경우",
            "type": "input2",
            "saveMe": true,
            "cssClass": "block",
            "activeTrueText": "예",
            "activeFalseText": "아니오",
            "list": [
              {
                "id": "mtbi1-1_n",
                "label": "횟수 :"
              },
              {
                "id": "mtbi1-1_t",
                "label": "설명 :"
              }
            ]
          },
          {
            "id": "mtbi1-2",
            "title": "2) 머리가 다른 물체에 부딪힌 경우 (the head striking an object)",
            "subTitle": "예) 걸어가다가 벽에 부딪힌 경우",
            "type": "input2",
            "saveMe": true,
            "cssClass": "block",
            "activeTrueText": "예",
            "activeFalseText": "아니오",
            "list": [
              {
                "id": "mtbi1-2_n",
                "label": "횟수 :"
              },
              {
                "id": "mtbi1-2_t",
                "label": "설명 :"
              }
            ]
          },
          {
            "id": "mtbi1-3",
            "title": "3) 머리에 직접적인 외상 없이 뇌가 가속/감속 운동을 겪게 되는 경우<br>(the brain undergoing an acceleration/deceleration movement (i.e., whiplash) without direct external trauma to the head)",
            "subTitle": "예) 자동차사고로 인한 목뼈손상",
            "type": "input2",
            "cssClass": "block",
            "saveMe": true,
            "activeTrueText": "예",
            "activeFalseText": "아니오",
            "list": [
              {
                "id": "mtbi1-3_n",
                "label": "횟수 :"
              },
              {
                "id": "mtbi1-3_t",
                "label": "설명 :"
              }
            ]
          },
          {
            "id": "mtbi1-4",
            "title": "4) 그 외 두부외상이 의심되는 사건",
            "type": "input2",
            "saveMe": true,
            "cssClass": "block",
            "activeTrueText": "예",
            "activeFalseText": "아니오",
            "list": [
              {
                "id": "mtbi1-4_n",
                "label": "횟수 :"
              },
              {
                "id": "mtbi1-4_t",
                "label": "설명 :"
              }
            ]
          },
          {
            "id": "mtbi2",
            "title": "2. 머리를 다치신 경험 중 다음과 같은 증상이 발생한 적이 있습니까?<br>(√ 체크하세요)",
            "type": "check1",
            "cssClass": "block",
            "list": [
              {
                "id": "0",
                "title": "멍하거나, 혼돈되거나 별이 보임.",
                "role": "selector"
              },
              {
                "id": "1",
                "title": "사고를 기억 못함",
                "role": "selector"
              },
              {
                "id": "2",
                "title": "1분 이하로 정신을 잃음",
                "role": "selector"
              },
              {
                "id": "3",
                "title": "1분-20분내로 정신을 잃음",
                "role": "selector"
              },
              {
                "id": "4",
                "title": "20분 이상 정신을 잃음",
                "role": "selector"
              },
              {
                "id": "5",
                "title": "뇌진탕 후에 어떤 증상들이 있었습니까? (예를 들면 두통, 어지러움, 짜증 등)",
                "role": "selector"
              },
              {
                "id": "6",
                "title": "머리 외상",
                "role": "selector"
              },
              {
                "id": "7",
                "title": "위 중에 아무 증상도 없음",
                "role": "selector"
              }
            ]
          },
          {
            "id": "mtbi3",
            "title": "3. 머리 외상이나 뇌진탕과 관련되었다고 생각되는 증상 중에서 요즘 당신이 경험하시는 문제가 있습니까?<br>(있었던 증상에 모두√ 체크하세요.)",
            "type": "check1",
            "cssClass": "grid",
            "list": [
              {
                "id": "0",
                "title": "두통",
                "role": "selector"
              },
              {
                "id": "1",
                "title": "귀가 울림",
                "role": "selector"
              },
              {
                "id": "2",
                "title": "어지러움",
                "role": "selector"
              },
              {
                "id": "3",
                "title": "짜증, 신경질",
                "role": "selector"
              },
              {
                "id": "4",
                "title": "기억력",
                "role": "selector"
              },
              {
                "id": "5",
                "title": "수면 문제",
                "role": "selector"
              },
              {
                "id": "6",
                "title": "균형 문제",
                "role": "selector"
              },
              {
                "id": "7",
                "title": "기타",
                "role": "etc"
              }
            ]
          }
        ]
      }
    ]
  }