{
    "id": "7",
    "title": "직무 환경 척도<br>(Work Environment Inventory)",
    "subTitle": "이 설문은 당신의 직업에 대한 매일의 좌절감과 만족감을 알고자 하는 것입니다. 당신의 현재 직업과 관련하여, 해당되는 문항에 얼마나 동의하는지, 또는 동의하지 않는지 표시하여 주십시오. 몇몇 문항들은 특정하게 경찰 업무와 관련되어 있지만, 나머지 문항들은 여러 다양한 직업들에도 관련이 있도록 만들어진 것입니다. 당신의 현재 직업과 관련이 없는 문항들의 경우에는 \"그렇지 않지도, 그렇지도 않다\"를 선택해 표시주십시오.",
    "description": "",
    "pages": [
      {
        "id": "0",
        "title": "",
        "subTitle": "",
        "description": "",
        "surveys": [
          {
            "id": "wei1",
            "title": "1. 지루한 일에서 힘든 일까지의 갑작스러운 변화가 나의 업무를 힘들게 만든다.",
            "type": "radio1",
            "cssClass": "block",
            "radioType": "radio",
            "list": [
              {
                "id": "0",
                "title": "전혀 그렇지 않다.",
                "role": "selector"
              },
              {
                "id": "1",
                "title": "조금 그렇지 않다.",
                "role": "selector"
              },
              {
                "id": "2",
                "title": "그렇지 않지도, 그렇지도 않다.",
                "role": "selector"
              },
              {
                "id": "3",
                "title": "어느정도 그렇다.",
                "role": "selector"
              },
              {
                "id": "4",
                "title": "매우 그렇다.",
                "role": "selector"
              }
            ]
          },
          {
            "id": "wei2",
            "title": "2. 나는 자주 나와 맞지 않는 동료와 함께 일해야 한다.",
            "type": "radio1",
            "cssClass": "block",
            "radioType": "radio",
            "list": [
              {
                "id": "0",
                "title": "전혀 그렇지 않다.",
                "role": "selector"
              },
              {
                "id": "1",
                "title": "조금 그렇지 않다.",
                "role": "selector"
              },
              {
                "id": "2",
                "title": "그렇지 않지도, 그렇지도 않다.",
                "role": "selector"
              },
              {
                "id": "3",
                "title": "어느정도 그렇다.",
                "role": "selector"
              },
              {
                "id": "4",
                "title": "매우 그렇다.",
                "role": "selector"
              }
            ]
          },
          {
            "id": "wei3",
            "title": "3. 대중들은 보수와 학력요건이 비슷한 다른 직업에 비해 나의 직업의 지위를 더 낮게평가한다.",
            "type": "radio1",
            "cssClass": "block",
            "radioType": "radio",
            "list": [
              {
                "id": "0",
                "title": "전혀 그렇지 않다.",
                "role": "selector"
              },
              {
                "id": "1",
                "title": "조금 그렇지 않다.",
                "role": "selector"
              },
              {
                "id": "2",
                "title": "그렇지 않지도, 그렇지도 않다.",
                "role": "selector"
              },
              {
                "id": "3",
                "title": "어느정도 그렇다.",
                "role": "selector"
              },
              {
                "id": "4",
                "title": "매우 그렇다.",
                "role": "selector"
              }
            ]
          },
          {
            "id": "wei4",
            "title": "4. 내가 일하는 곳에서는 인종과 민족에 관련된 불쾌한 농담을 흔하게 한다.",
            "type": "radio1",
            "cssClass": "block",
            "radioType": "radio",
            "list": [
              {
                "id": "0",
                "title": "전혀 그렇지 않다.",
                "role": "selector"
              },
              {
                "id": "1",
                "title": "조금 그렇지 않다.",
                "role": "selector"
              },
              {
                "id": "2",
                "title": "그렇지 않지도, 그렇지도 않다.",
                "role": "selector"
              },
              {
                "id": "3",
                "title": "어느정도 그렇다.",
                "role": "selector"
              },
              {
                "id": "4",
                "title": "매우 그렇다.",
                "role": "selector"
              }
            ]
          },
          {
            "id": "wei5",
            "title": "5. 나의 안전과 효율성을 위한 개인 장비가 만족스럽지 못하다.",
            "type": "radio1",
            "cssClass": "block",
            "radioType": "radio",
            "list": [
              {
                "id": "0",
                "title": "전혀 그렇지 않다.",
                "role": "selector"
              },
              {
                "id": "1",
                "title": "조금 그렇지 않다.",
                "role": "selector"
              },
              {
                "id": "2",
                "title": "그렇지 않지도, 그렇지도 않다.",
                "role": "selector"
              },
              {
                "id": "3",
                "title": "어느정도 그렇다.",
                "role": "selector"
              },
              {
                "id": "4",
                "title": "매우 그렇다.",
                "role": "selector"
              }
            ]
          },
          {
            "id": "wei6",
            "title": "6. 내가 속한 부서의 관리감독은 나의 업무와 의욕에 대체로 긍정적인 영향을 미친다.",
            "type": "radio1",
            "cssClass": "block",
            "radioType": "radio",
            "list": [
              {
                "id": "0",
                "title": "전혀 그렇지 않다.",
                "role": "selector"
              },
              {
                "id": "1",
                "title": "조금 그렇지 않다.",
                "role": "selector"
              },
              {
                "id": "2",
                "title": "그렇지 않지도, 그렇지도 않다.",
                "role": "selector"
              },
              {
                "id": "3",
                "title": "어느정도 그렇다.",
                "role": "selector"
              },
              {
                "id": "4",
                "title": "매우 그렇다.",
                "role": "selector"
              }
            ]
          },
          {
            "id": "wei7",
            "title": "7. 내가 일하는 곳의 동성연애자 직원들은 자신의 성적 취향을 숨길 필요성을 느끼지 못한다.",
            "type": "radio1",
            "cssClass": "block",
            "radioType": "radio",
            "list": [
              {
                "id": "0",
                "title": "전혀 그렇지 않다.",
                "role": "selector"
              },
              {
                "id": "1",
                "title": "조금 그렇지 않다.",
                "role": "selector"
              },
              {
                "id": "2",
                "title": "그렇지 않지도, 그렇지도 않다.",
                "role": "selector"
              },
              {
                "id": "3",
                "title": "어느정도 그렇다.",
                "role": "selector"
              },
              {
                "id": "4",
                "title": "매우 그렇다.",
                "role": "selector"
              }
            ]
          },
          {
            "id": "wei8",
            "title": "8. 나는 나에게 주어진 업무에 행복을 느낀다.",
            "type": "radio1",
            "cssClass": "block",
            "radioType": "radio",
            "list": [
              {
                "id": "0",
                "title": "전혀 그렇지 않다.",
                "role": "selector"
              },
              {
                "id": "1",
                "title": "조금 그렇지 않다.",
                "role": "selector"
              },
              {
                "id": "2",
                "title": "그렇지 않지도, 그렇지도 않다.",
                "role": "selector"
              },
              {
                "id": "3",
                "title": "어느정도 그렇다.",
                "role": "selector"
              },
              {
                "id": "4",
                "title": "매우 그렇다.",
                "role": "selector"
              }
            ]
          },
          {
            "id": "wei9",
            "title": "9. 나는 나의 상사들과 좋은 관계를 갖고 있지 않다.",
            "type": "radio1",
            "cssClass": "block",
            "radioType": "radio",
            "list": [
              {
                "id": "0",
                "title": "전혀 그렇지 않다.",
                "role": "selector"
              },
              {
                "id": "1",
                "title": "조금 그렇지 않다.",
                "role": "selector"
              },
              {
                "id": "2",
                "title": "그렇지 않지도, 그렇지도 않다.",
                "role": "selector"
              },
              {
                "id": "3",
                "title": "어느정도 그렇다.",
                "role": "selector"
              },
              {
                "id": "4",
                "title": "매우 그렇다.",
                "role": "selector"
              }
            ]
          },
          {
            "id": "wei10",
            "title": "10. 나는 내가 하는 일에 비해 보수를 충분하게 받고 있지 않다.",
            "type": "radio1",
            "cssClass": "block",
            "radioType": "radio",
            "list": [
              {
                "id": "0",
                "title": "전혀 그렇지 않다.",
                "role": "selector"
              },
              {
                "id": "1",
                "title": "조금 그렇지 않다.",
                "role": "selector"
              },
              {
                "id": "2",
                "title": "그렇지 않지도, 그렇지도 않다.",
                "role": "selector"
              },
              {
                "id": "3",
                "title": "어느정도 그렇다.",
                "role": "selector"
              },
              {
                "id": "4",
                "title": "매우 그렇다.",
                "role": "selector"
              }
            ]
          },
          {
            "id": "wei11",
            "title": "11. 나는 나의 직업으로 인해 고소당하는 것에 대해 크게 걱정하지 않는다.",
            "type": "radio1",
            "cssClass": "block",
            "radioType": "radio",
            "list": [
              {
                "id": "0",
                "title": "전혀 그렇지 않다.",
                "role": "selector"
              },
              {
                "id": "1",
                "title": "조금 그렇지 않다.",
                "role": "selector"
              },
              {
                "id": "2",
                "title": "그렇지 않지도, 그렇지도 않다.",
                "role": "selector"
              },
              {
                "id": "3",
                "title": "어느정도 그렇다.",
                "role": "selector"
              },
              {
                "id": "4",
                "title": "매우 그렇다.",
                "role": "selector"
              }
            ]
          },
          {
            "id": "wei12",
            "title": "12. 나는 종종 일하면서 지루함이나 고립감을 느낀다.",
            "type": "radio1",
            "cssClass": "block",
            "radioType": "radio",
            "list": [
              {
                "id": "0",
                "title": "전혀 그렇지 않다.",
                "role": "selector"
              },
              {
                "id": "1",
                "title": "조금 그렇지 않다.",
                "role": "selector"
              },
              {
                "id": "2",
                "title": "그렇지 않지도, 그렇지도 않다.",
                "role": "selector"
              },
              {
                "id": "3",
                "title": "어느정도 그렇다.",
                "role": "selector"
              },
              {
                "id": "4",
                "title": "매우 그렇다.",
                "role": "selector"
              }
            ]
          },
          {
            "id": "wei13",
            "title": "13. 나는 직장에서 성적인 언급이나 농담, 물건들로 인해 모욕을 느낀다.",
            "type": "radio1",
            "cssClass": "block",
            "radioType": "radio",
            "list": [
              {
                "id": "0",
                "title": "전혀 그렇지 않다.",
                "role": "selector"
              },
              {
                "id": "1",
                "title": "조금 그렇지 않다.",
                "role": "selector"
              },
              {
                "id": "2",
                "title": "그렇지 않지도, 그렇지도 않다.",
                "role": "selector"
              },
              {
                "id": "3",
                "title": "어느정도 그렇다.",
                "role": "selector"
              },
              {
                "id": "4",
                "title": "매우 그렇다.",
                "role": "selector"
              }
            ]
          },
          {
            "id": "wei14",
            "title": "14. 나는 종종 불필요한 신체적 위험에 처한다.",
            "type": "radio1",
            "cssClass": "block",
            "radioType": "radio",
            "list": [
              {
                "id": "0",
                "title": "전혀 그렇지 않다.",
                "role": "selector"
              },
              {
                "id": "1",
                "title": "조금 그렇지 않다.",
                "role": "selector"
              },
              {
                "id": "2",
                "title": "그렇지 않지도, 그렇지도 않다.",
                "role": "selector"
              },
              {
                "id": "3",
                "title": "어느정도 그렇다.",
                "role": "selector"
              },
              {
                "id": "4",
                "title": "매우 그렇다.",
                "role": "selector"
              }
            ]
          },
          {
            "id": "wei15",
            "title": "15. 나는 업무에 있어 나에게 기대되는 것이 무엇인지 종종 잘 모르겠다.",
            "type": "radio1",
            "cssClass": "block",
            "radioType": "radio",
            "list": [
              {
                "id": "0",
                "title": "전혀 그렇지 않다.",
                "role": "selector"
              },
              {
                "id": "1",
                "title": "조금 그렇지 않다.",
                "role": "selector"
              },
              {
                "id": "2",
                "title": "그렇지 않지도, 그렇지도 않다.",
                "role": "selector"
              },
              {
                "id": "3",
                "title": "어느정도 그렇다.",
                "role": "selector"
              },
              {
                "id": "4",
                "title": "매우 그렇다.",
                "role": "selector"
              }
            ]
          },
          {
            "id": "wei16",
            "title": "16. 내게 주어지는 업무량은 과도하다.",
            "type": "radio1",
            "cssClass": "block",
            "radioType": "radio",
            "list": [
              {
                "id": "0",
                "title": "전혀 그렇지 않다.",
                "role": "selector"
              },
              {
                "id": "1",
                "title": "조금 그렇지 않다.",
                "role": "selector"
              },
              {
                "id": "2",
                "title": "그렇지 않지도, 그렇지도 않다.",
                "role": "selector"
              },
              {
                "id": "3",
                "title": "어느정도 그렇다.",
                "role": "selector"
              },
              {
                "id": "4",
                "title": "매우 그렇다.",
                "role": "selector"
              }
            ]
          },
          {
            "id": "wei17",
            "title": "17. 나는 도움이 정말로 필요한 사람들을 도와주는 것을 제지 당한다.",
            "type": "radio1",
            "cssClass": "block",
            "radioType": "radio",
            "list": [
              {
                "id": "0",
                "title": "전혀 그렇지 않다.",
                "role": "selector"
              },
              {
                "id": "1",
                "title": "조금 그렇지 않다.",
                "role": "selector"
              },
              {
                "id": "2",
                "title": "그렇지 않지도, 그렇지도 않다.",
                "role": "selector"
              },
              {
                "id": "3",
                "title": "어느정도 그렇다.",
                "role": "selector"
              },
              {
                "id": "4",
                "title": "매우 그렇다.",
                "role": "selector"
              }
            ]
          },
          {
            "id": "wei18",
            "title": "18. 나는 결과물을 내야 한다는 부담감을 많이 느낀다.",
            "type": "radio1",
            "cssClass": "block",
            "radioType": "radio",
            "list": [
              {
                "id": "0",
                "title": "전혀 그렇지 않다.",
                "role": "selector"
              },
              {
                "id": "1",
                "title": "조금 그렇지 않다.",
                "role": "selector"
              },
              {
                "id": "2",
                "title": "그렇지 않지도, 그렇지도 않다.",
                "role": "selector"
              },
              {
                "id": "3",
                "title": "어느정도 그렇다.",
                "role": "selector"
              },
              {
                "id": "4",
                "title": "매우 그렇다.",
                "role": "selector"
              }
            ]
          },
          {
            "id": "wei19",
            "title": "19. 나는 충분히 활용되고 있지 못하다.",
            "type": "radio1",
            "cssClass": "block",
            "radioType": "radio",
            "list": [
              {
                "id": "0",
                "title": "전혀 그렇지 않다.",
                "role": "selector"
              },
              {
                "id": "1",
                "title": "조금 그렇지 않다.",
                "role": "selector"
              },
              {
                "id": "2",
                "title": "그렇지 않지도, 그렇지도 않다.",
                "role": "selector"
              },
              {
                "id": "3",
                "title": "어느정도 그렇다.",
                "role": "selector"
              },
              {
                "id": "4",
                "title": "매우 그렇다.",
                "role": "selector"
              }
            ]
          },
          {
            "id": "wei20",
            "title": "20. 나는 동성연애자들에 대한 동료들의 부정적인 언급에 불편함을 느낀다.",
            "type": "radio1",
            "cssClass": "block",
            "radioType": "radio",
            "list": [
              {
                "id": "0",
                "title": "전혀 그렇지 않다.",
                "role": "selector"
              },
              {
                "id": "1",
                "title": "조금 그렇지 않다.",
                "role": "selector"
              },
              {
                "id": "2",
                "title": "그렇지 않지도, 그렇지도 않다.",
                "role": "selector"
              },
              {
                "id": "3",
                "title": "어느정도 그렇다.",
                "role": "selector"
              },
              {
                "id": "4",
                "title": "매우 그렇다.",
                "role": "selector"
              }
            ]
          },
          {
            "id": "wei21",
            "title": "21. 나는 내가 무슨 일을 하는지 이웃들이 알지 못하게 한다.",
            "type": "radio1",
            "cssClass": "block",
            "radioType": "radio",
            "list": [
              {
                "id": "0",
                "title": "전혀 그렇지 않다.",
                "role": "selector"
              },
              {
                "id": "1",
                "title": "조금 그렇지 않다.",
                "role": "selector"
              },
              {
                "id": "2",
                "title": "그렇지 않지도, 그렇지도 않다.",
                "role": "selector"
              },
              {
                "id": "3",
                "title": "어느정도 그렇다.",
                "role": "selector"
              },
              {
                "id": "4",
                "title": "매우 그렇다.",
                "role": "selector"
              }
            ]
          },
          {
            "id": "wei22",
            "title": "22. 나의 판단과 반대되는 일들을 직장에서 해야만 하는 때가 거의 없다.",
            "type": "radio1",
            "cssClass": "block",
            "radioType": "radio",
            "list": [
              {
                "id": "0",
                "title": "전혀 그렇지 않다.",
                "role": "selector"
              },
              {
                "id": "1",
                "title": "조금 그렇지 않다.",
                "role": "selector"
              },
              {
                "id": "2",
                "title": "그렇지 않지도, 그렇지도 않다.",
                "role": "selector"
              },
              {
                "id": "3",
                "title": "어느정도 그렇다.",
                "role": "selector"
              },
              {
                "id": "4",
                "title": "매우 그렇다.",
                "role": "selector"
              }
            ]
          },
          {
            "id": "wei23",
            "title": "23. 나는 동료들과 좋은 관계를 갖고 있다.",
            "type": "radio1",
            "cssClass": "block",
            "radioType": "radio",
            "list": [
              {
                "id": "0",
                "title": "전혀 그렇지 않다.",
                "role": "selector"
              },
              {
                "id": "1",
                "title": "조금 그렇지 않다.",
                "role": "selector"
              },
              {
                "id": "2",
                "title": "그렇지 않지도, 그렇지도 않다.",
                "role": "selector"
              },
              {
                "id": "3",
                "title": "어느정도 그렇다.",
                "role": "selector"
              },
              {
                "id": "4",
                "title": "매우 그렇다.",
                "role": "selector"
              }
            ]
          },
          {
            "id": "wei24",
            "title": "24. 나는 직장에서 원치 않은 성적인 관심을 받은 적이 있다.",
            "type": "radio1",
            "cssClass": "block",
            "radioType": "radio",
            "list": [
              {
                "id": "0",
                "title": "전혀 그렇지 않다.",
                "role": "selector"
              },
              {
                "id": "1",
                "title": "조금 그렇지 않다.",
                "role": "selector"
              },
              {
                "id": "2",
                "title": "그렇지 않지도, 그렇지도 않다.",
                "role": "selector"
              },
              {
                "id": "3",
                "title": "어느정도 그렇다.",
                "role": "selector"
              },
              {
                "id": "4",
                "title": "매우 그렇다.",
                "role": "selector"
              }
            ]
          },
          {
            "id": "wei25",
            "title": "25. 나는 나의 일을 통해 사회에 중요한 기여를 하고 있다.",
            "type": "radio1",
            "cssClass": "block",
            "radioType": "radio",
            "list": [
              {
                "id": "0",
                "title": "전혀 그렇지 않다.",
                "role": "selector"
              },
              {
                "id": "1",
                "title": "조금 그렇지 않다.",
                "role": "selector"
              },
              {
                "id": "2",
                "title": "그렇지 않지도, 그렇지도 않다.",
                "role": "selector"
              },
              {
                "id": "3",
                "title": "어느정도 그렇다.",
                "role": "selector"
              },
              {
                "id": "4",
                "title": "매우 그렇다.",
                "role": "selector"
              }
            ]
          },
          {
            "id": "wei26",
            "title": "26. 나는 가족과 나의 업무와 업무상 문제에 관해 얘기한다.",
            "type": "radio1",
            "cssClass": "block",
            "radioType": "radio",
            "list": [
              {
                "id": "0",
                "title": "전혀 그렇지 않다.",
                "role": "selector"
              },
              {
                "id": "1",
                "title": "조금 그렇지 않다.",
                "role": "selector"
              },
              {
                "id": "2",
                "title": "그렇지 않지도, 그렇지도 않다.",
                "role": "selector"
              },
              {
                "id": "3",
                "title": "어느정도 그렇다.",
                "role": "selector"
              },
              {
                "id": "4",
                "title": "매우 그렇다.",
                "role": "selector"
              }
            ]
          },
          {
            "id": "wei27",
            "title": "27. 나는 종종 나에게 주어진 상충되는 요구들을 해내지 못할 것이라고 느낀다.",
            "type": "radio1",
            "cssClass": "block",
            "radioType": "radio",
            "list": [
              {
                "id": "0",
                "title": "전혀 그렇지 않다.",
                "role": "selector"
              },
              {
                "id": "1",
                "title": "조금 그렇지 않다.",
                "role": "selector"
              },
              {
                "id": "2",
                "title": "그렇지 않지도, 그렇지도 않다.",
                "role": "selector"
              },
              {
                "id": "3",
                "title": "어느정도 그렇다.",
                "role": "selector"
              },
              {
                "id": "4",
                "title": "매우 그렇다.",
                "role": "selector"
              }
            ]
          },
          {
            "id": "wei28",
            "title": "28. 나는 불충분한 무전과 의사소통 장비들 때문에 위기에 처한다.",
            "type": "radio1",
            "cssClass": "block",
            "radioType": "radio",
            "list": [
              {
                "id": "0",
                "title": "전혀 그렇지 않다.",
                "role": "selector"
              },
              {
                "id": "1",
                "title": "조금 그렇지 않다.",
                "role": "selector"
              },
              {
                "id": "2",
                "title": "그렇지 않지도, 그렇지도 않다.",
                "role": "selector"
              },
              {
                "id": "3",
                "title": "어느정도 그렇다.",
                "role": "selector"
              },
              {
                "id": "4",
                "title": "매우 그렇다.",
                "role": "selector"
              }
            ]
          },
          {
            "id": "wei29",
            "title": "29. 나는 나의 일에 대해 나의 직업 분야에 있지 않은 사람들과 의논할 수 없다고 생각한다.",
            "type": "radio1",
            "cssClass": "block",
            "radioType": "radio",
            "list": [
              {
                "id": "0",
                "title": "전혀 그렇지 않다.",
                "role": "selector"
              },
              {
                "id": "1",
                "title": "조금 그렇지 않다.",
                "role": "selector"
              },
              {
                "id": "2",
                "title": "그렇지 않지도, 그렇지도 않다.",
                "role": "selector"
              },
              {
                "id": "3",
                "title": "어느정도 그렇다.",
                "role": "selector"
              },
              {
                "id": "4",
                "title": "매우 그렇다.",
                "role": "selector"
              }
            ]
          },
          {
            "id": "wei30",
            "title": "30. 내가 일하는 곳에서 남자와 여자 직원은 똑같은 대우를 받는다.",
            "type": "radio1",
            "cssClass": "block",
            "radioType": "radio",
            "list": [
              {
                "id": "0",
                "title": "전혀 그렇지 않다.",
                "role": "selector"
              },
              {
                "id": "1",
                "title": "조금 그렇지 않다.",
                "role": "selector"
              },
              {
                "id": "2",
                "title": "그렇지 않지도, 그렇지도 않다.",
                "role": "selector"
              },
              {
                "id": "3",
                "title": "어느정도 그렇다.",
                "role": "selector"
              },
              {
                "id": "4",
                "title": "매우 그렇다.",
                "role": "selector"
              }
            ]
          },
          {
            "id": "wei31",
            "title": "31. 내가 직업적으로 관계하는 대부분의 사람들은 나를 존중해 준다.",
            "type": "radio1",
            "cssClass": "block",
            "radioType": "radio",
            "list": [
              {
                "id": "0",
                "title": "전혀 그렇지 않다.",
                "role": "selector"
              },
              {
                "id": "1",
                "title": "조금 그렇지 않다.",
                "role": "selector"
              },
              {
                "id": "2",
                "title": "그렇지 않지도, 그렇지도 않다.",
                "role": "selector"
              },
              {
                "id": "3",
                "title": "어느정도 그렇다.",
                "role": "selector"
              },
              {
                "id": "4",
                "title": "매우 그렇다.",
                "role": "selector"
              }
            ]
          },
          {
            "id": "wei32",
            "title": "32. 나의 동료들은 자신의 일을 매우 능숙하고 효율적으로 한다.",
            "type": "radio1",
            "cssClass": "block",
            "radioType": "radio",
            "list": [
              {
                "id": "0",
                "title": "전혀 그렇지 않다.",
                "role": "selector"
              },
              {
                "id": "1",
                "title": "조금 그렇지 않다.",
                "role": "selector"
              },
              {
                "id": "2",
                "title": "그렇지 않지도, 그렇지도 않다.",
                "role": "selector"
              },
              {
                "id": "3",
                "title": "어느정도 그렇다.",
                "role": "selector"
              },
              {
                "id": "4",
                "title": "매우 그렇다.",
                "role": "selector"
              }
            ]
          },
          {
            "id": "wei33",
            "title": "33. 나의 직업이 나의 사회생활과 친구 및 이웃과의 관계에 부정적인 영향을 미친다.",
            "type": "radio1",
            "cssClass": "block",
            "radioType": "radio",
            "list": [
              {
                "id": "0",
                "title": "전혀 그렇지 않다.",
                "role": "selector"
              },
              {
                "id": "1",
                "title": "조금 그렇지 않다.",
                "role": "selector"
              },
              {
                "id": "2",
                "title": "그렇지 않지도, 그렇지도 않다.",
                "role": "selector"
              },
              {
                "id": "3",
                "title": "어느정도 그렇다.",
                "role": "selector"
              },
              {
                "id": "4",
                "title": "매우 그렇다.",
                "role": "selector"
              }
            ]
          },
          {
            "id": "wei34",
            "title": "34. 내가 받은 훈련이 나의 업무에 유용하게 사용된다.",
            "type": "radio1",
            "cssClass": "block",
            "radioType": "radio",
            "list": [
              {
                "id": "0",
                "title": "전혀 그렇지 않다.",
                "role": "selector"
              },
              {
                "id": "1",
                "title": "조금 그렇지 않다.",
                "role": "selector"
              },
              {
                "id": "2",
                "title": "그렇지 않지도, 그렇지도 않다.",
                "role": "selector"
              },
              {
                "id": "3",
                "title": "어느정도 그렇다.",
                "role": "selector"
              },
              {
                "id": "4",
                "title": "매우 그렇다.",
                "role": "selector"
              }
            ]
          },
          {
            "id": "wei35",
            "title": "35. 나의 동료들은 내가 내 업무에 매우 능숙하다고 평가한다.",
            "type": "radio1",
            "cssClass": "block",
            "radioType": "radio",
            "list": [
              {
                "id": "0",
                "title": "전혀 그렇지 않다.",
                "role": "selector"
              },
              {
                "id": "1",
                "title": "조금 그렇지 않다.",
                "role": "selector"
              },
              {
                "id": "2",
                "title": "그렇지 않지도, 그렇지도 않다.",
                "role": "selector"
              },
              {
                "id": "3",
                "title": "어느정도 그렇다.",
                "role": "selector"
              },
              {
                "id": "4",
                "title": "매우 그렇다.",
                "role": "selector"
              }
            ]
          },
          {
            "id": "wei36",
            "title": "36. 나의 직업의 대중적 이미지는 대체로 긍정적이다.",
            "type": "radio1",
            "cssClass": "block",
            "radioType": "radio",
            "list": [
              {
                "id": "0",
                "title": "전혀 그렇지 않다.",
                "role": "selector"
              },
              {
                "id": "1",
                "title": "조금 그렇지 않다.",
                "role": "selector"
              },
              {
                "id": "2",
                "title": "그렇지 않지도, 그렇지도 않다.",
                "role": "selector"
              },
              {
                "id": "3",
                "title": "어느정도 그렇다.",
                "role": "selector"
              },
              {
                "id": "4",
                "title": "매우 그렇다.",
                "role": "selector"
              }
            ]
          },
          {
            "id": "wei37",
            "title": "37. 나의 상사들과 나는 서로 존중하고 신뢰한다.",
            "type": "radio1",
            "cssClass": "block",
            "radioType": "radio",
            "list": [
              {
                "id": "0",
                "title": "전혀 그렇지 않다.",
                "role": "selector"
              },
              {
                "id": "1",
                "title": "조금 그렇지 않다.",
                "role": "selector"
              },
              {
                "id": "2",
                "title": "그렇지 않지도, 그렇지도 않다.",
                "role": "selector"
              },
              {
                "id": "3",
                "title": "어느정도 그렇다.",
                "role": "selector"
              },
              {
                "id": "4",
                "title": "매우 그렇다.",
                "role": "selector"
              }
            ]
          },
          {
            "id": "wei38",
            "title": "38. 내가 받은 훈련이 실제적인 업무에 도움이 되지 않았다.",
            "type": "radio1",
            "cssClass": "block",
            "radioType": "radio",
            "list": [
              {
                "id": "0",
                "title": "전혀 그렇지 않다.",
                "role": "selector"
              },
              {
                "id": "1",
                "title": "조금 그렇지 않다.",
                "role": "selector"
              },
              {
                "id": "2",
                "title": "그렇지 않지도, 그렇지도 않다.",
                "role": "selector"
              },
              {
                "id": "3",
                "title": "어느정도 그렇다.",
                "role": "selector"
              },
              {
                "id": "4",
                "title": "매우 그렇다.",
                "role": "selector"
              }
            ]
          },
          {
            "id": "wei39",
            "title": "39. 나의 업무 환경은 제대로 되어 있지 않아 불편하다.",
            "type": "radio1",
            "cssClass": "block",
            "radioType": "radio",
            "list": [
              {
                "id": "0",
                "title": "전혀 그렇지 않다.",
                "role": "selector"
              },
              {
                "id": "1",
                "title": "조금 그렇지 않다.",
                "role": "selector"
              },
              {
                "id": "2",
                "title": "그렇지 않지도, 그렇지도 않다.",
                "role": "selector"
              },
              {
                "id": "3",
                "title": "어느정도 그렇다.",
                "role": "selector"
              },
              {
                "id": "4",
                "title": "매우 그렇다.",
                "role": "selector"
              }
            ]
          },
          {
            "id": "wei40",
            "title": "40. 직장에서 커피를 대접하거나 자질구레한 일들을 처리하는 것은 남자보다 여자에게 더 자주 기대된다.",
            "type": "radio1",
            "cssClass": "block",
            "radioType": "radio",
            "list": [
              {
                "id": "0",
                "title": "전혀 그렇지 않다.",
                "role": "selector"
              },
              {
                "id": "1",
                "title": "조금 그렇지 않다.",
                "role": "selector"
              },
              {
                "id": "2",
                "title": "그렇지 않지도, 그렇지도 않다.",
                "role": "selector"
              },
              {
                "id": "3",
                "title": "어느정도 그렇다.",
                "role": "selector"
              },
              {
                "id": "4",
                "title": "매우 그렇다.",
                "role": "selector"
              }
            ]
          },
          {
            "id": "wei41",
            "title": "41. 일부 인종/민족 집단에 속하는 사람들의 업무가 감독자들에 의해 불공평하게 자세히 감독된다.",
            "type": "radio1",
            "cssClass": "block",
            "radioType": "radio",
            "list": [
              {
                "id": "0",
                "title": "전혀 그렇지 않다.",
                "role": "selector"
              },
              {
                "id": "1",
                "title": "조금 그렇지 않다.",
                "role": "selector"
              },
              {
                "id": "2",
                "title": "그렇지 않지도, 그렇지도 않다.",
                "role": "selector"
              },
              {
                "id": "3",
                "title": "어느정도 그렇다.",
                "role": "selector"
              },
              {
                "id": "4",
                "title": "매우 그렇다.",
                "role": "selector"
              }
            ]
          },
          {
            "id": "wei42",
            "title": "42. 나의 업무에 있어 서류 업무와 같은 표준 작업 지침들은 성가시다.",
            "type": "radio1",
            "cssClass": "block",
            "radioType": "radio",
            "list": [
              {
                "id": "0",
                "title": "전혀 그렇지 않다.",
                "role": "selector"
              },
              {
                "id": "1",
                "title": "조금 그렇지 않다.",
                "role": "selector"
              },
              {
                "id": "2",
                "title": "그렇지 않지도, 그렇지도 않다.",
                "role": "selector"
              },
              {
                "id": "3",
                "title": "어느정도 그렇다.",
                "role": "selector"
              },
              {
                "id": "4",
                "title": "매우 그렇다.",
                "role": "selector"
              }
            ]
          },
          {
            "id": "wei43",
            "title": "43. 관리/경영자는 부담과 직업적 스트레스를 유발한다.",
            "type": "radio1",
            "cssClass": "block",
            "radioType": "radio",
            "list": [
              {
                "id": "0",
                "title": "전혀 그렇지 않다.",
                "role": "selector"
              },
              {
                "id": "1",
                "title": "조금 그렇지 않다.",
                "role": "selector"
              },
              {
                "id": "2",
                "title": "그렇지 않지도, 그렇지도 않다.",
                "role": "selector"
              },
              {
                "id": "3",
                "title": "어느정도 그렇다.",
                "role": "selector"
              },
              {
                "id": "4",
                "title": "매우 그렇다.",
                "role": "selector"
              }
            ]
          },
          {
            "id": "wei44",
            "title": "44. 나의 업무에 필요한 장비들은 언제나 사용이 가능하고 좋은 상태이다.",
            "type": "radio1",
            "cssClass": "block",
            "radioType": "radio",
            "list": [
              {
                "id": "0",
                "title": "전혀 그렇지 않다.",
                "role": "selector"
              },
              {
                "id": "1",
                "title": "조금 그렇지 않다.",
                "role": "selector"
              },
              {
                "id": "2",
                "title": "그렇지 않지도, 그렇지도 않다.",
                "role": "selector"
              },
              {
                "id": "3",
                "title": "어느정도 그렇다.",
                "role": "selector"
              },
              {
                "id": "4",
                "title": "매우 그렇다.",
                "role": "selector"
              }
            ]
          },
          {
            "id": "wei45",
            "title": "45. 관리자/경영자는 내가 가진 문제들을 이해하고 신경 쓰는 것 같다.",
            "type": "radio1",
            "cssClass": "block",
            "radioType": "radio",
            "list": [
              {
                "id": "0",
                "title": "전혀 그렇지 않다.",
                "role": "selector"
              },
              {
                "id": "1",
                "title": "조금 그렇지 않다.",
                "role": "selector"
              },
              {
                "id": "2",
                "title": "그렇지 않지도, 그렇지도 않다.",
                "role": "selector"
              },
              {
                "id": "3",
                "title": "어느정도 그렇다.",
                "role": "selector"
              },
              {
                "id": "4",
                "title": "매우 그렇다.",
                "role": "selector"
              }
            ]
          },
          {
            "id": "wei46",
            "title": "46. 나의 직장에서 직원들은 인종/민족에 관계 없이 서로 평등하게 대우한다.",
            "type": "radio1",
            "cssClass": "block",
            "radioType": "radio",
            "list": [
              {
                "id": "0",
                "title": "전혀 그렇지 않다.",
                "role": "selector"
              },
              {
                "id": "1",
                "title": "조금 그렇지 않다.",
                "role": "selector"
              },
              {
                "id": "2",
                "title": "그렇지 않지도, 그렇지도 않다.",
                "role": "selector"
              },
              {
                "id": "3",
                "title": "어느정도 그렇다.",
                "role": "selector"
              },
              {
                "id": "4",
                "title": "매우 그렇다.",
                "role": "selector"
              }
            ]
          },
          {
            "id": "wei47",
            "title": "47. 나의 직장의 복리후생은 적절하다.",
            "type": "radio1",
            "cssClass": "block",
            "radioType": "radio",
            "list": [
              {
                "id": "0",
                "title": "전혀 그렇지 않다.",
                "role": "selector"
              },
              {
                "id": "1",
                "title": "조금 그렇지 않다.",
                "role": "selector"
              },
              {
                "id": "2",
                "title": "그렇지 않지도, 그렇지도 않다.",
                "role": "selector"
              },
              {
                "id": "3",
                "title": "어느정도 그렇다.",
                "role": "selector"
              },
              {
                "id": "4",
                "title": "매우 그렇다.",
                "role": "selector"
              }
            ]
          },
          {
            "id": "wei48",
            "title": "48. 내 부서의 상사들은 부하직원들을 불공평하게 대우하고 편애한다.",
            "type": "radio1",
            "cssClass": "block",
            "radioType": "radio",
            "list": [
              {
                "id": "0",
                "title": "전혀 그렇지 않다.",
                "role": "selector"
              },
              {
                "id": "1",
                "title": "조금 그렇지 않다.",
                "role": "selector"
              },
              {
                "id": "2",
                "title": "그렇지 않지도, 그렇지도 않다.",
                "role": "selector"
              },
              {
                "id": "3",
                "title": "어느정도 그렇다.",
                "role": "selector"
              },
              {
                "id": "4",
                "title": "매우 그렇다.",
                "role": "selector"
              }
            ]
          },
          {
            "id": "wei49",
            "title": "49. 관리자/경영자는 나의 판단을 매우 신뢰한다.",
            "type": "radio1",
            "cssClass": "block",
            "radioType": "radio",
            "list": [
              {
                "id": "0",
                "title": "전혀 그렇지 않다.",
                "role": "selector"
              },
              {
                "id": "1",
                "title": "조금 그렇지 않다.",
                "role": "selector"
              },
              {
                "id": "2",
                "title": "그렇지 않지도, 그렇지도 않다.",
                "role": "selector"
              },
              {
                "id": "3",
                "title": "어느정도 그렇다.",
                "role": "selector"
              },
              {
                "id": "4",
                "title": "매우 그렇다.",
                "role": "selector"
              }
            ]
          },
          {
            "id": "wei50",
            "title": "50. 내가 내사의 대상이 될지도 모른다는 가능성에 걱정이 된다.",
            "type": "radio1",
            "cssClass": "block",
            "radioType": "radio",
            "list": [
              {
                "id": "0",
                "title": "전혀 그렇지 않다.",
                "role": "selector"
              },
              {
                "id": "1",
                "title": "조금 그렇지 않다.",
                "role": "selector"
              },
              {
                "id": "2",
                "title": "그렇지 않지도, 그렇지도 않다.",
                "role": "selector"
              },
              {
                "id": "3",
                "title": "어느정도 그렇다.",
                "role": "selector"
              },
              {
                "id": "4",
                "title": "매우 그렇다.",
                "role": "selector"
              }
            ]
          },
          {
            "id": "wei51",
            "title": "51. 관리자/경영자는 잘못된 비판을 받는 사람들에게 별로 도움을 주지 않는다.",
            "type": "radio1",
            "cssClass": "block",
            "radioType": "radio",
            "list": [
              {
                "id": "0",
                "title": "전혀 그렇지 않다.",
                "role": "selector"
              },
              {
                "id": "1",
                "title": "조금 그렇지 않다.",
                "role": "selector"
              },
              {
                "id": "2",
                "title": "그렇지 않지도, 그렇지도 않다.",
                "role": "selector"
              },
              {
                "id": "3",
                "title": "어느정도 그렇다.",
                "role": "selector"
              },
              {
                "id": "4",
                "title": "매우 그렇다.",
                "role": "selector"
              }
            ]
          },
          {
            "id": "wei52",
            "title": "52. 나의 직장에서 여자와 남자는 화장실, 샤워실 및 휴게실에 대한 접근을 동일하게 갖는다.",
            "type": "radio1",
            "cssClass": "block",
            "radioType": "radio",
            "list": [
              {
                "id": "0",
                "title": "전혀 그렇지 않다.",
                "role": "selector"
              },
              {
                "id": "1",
                "title": "조금 그렇지 않다.",
                "role": "selector"
              },
              {
                "id": "2",
                "title": "그렇지 않지도, 그렇지도 않다.",
                "role": "selector"
              },
              {
                "id": "3",
                "title": "어느정도 그렇다.",
                "role": "selector"
              },
              {
                "id": "4",
                "title": "매우 그렇다.",
                "role": "selector"
              }
            ]
          },
          {
            "id": "wei53",
            "title": "53. 대중들은 나와 같은 직업군의 사람들을 부당하게 비판한다.",
            "type": "radio1",
            "cssClass": "block",
            "radioType": "radio",
            "list": [
              {
                "id": "0",
                "title": "전혀 그렇지 않다.",
                "role": "selector"
              },
              {
                "id": "1",
                "title": "조금 그렇지 않다.",
                "role": "selector"
              },
              {
                "id": "2",
                "title": "그렇지 않지도, 그렇지도 않다.",
                "role": "selector"
              },
              {
                "id": "3",
                "title": "어느정도 그렇다.",
                "role": "selector"
              },
              {
                "id": "4",
                "title": "매우 그렇다.",
                "role": "selector"
              }
            ]
          },
          {
            "id": "wei54",
            "title": "54. 나의 개인 자유 시간에 부수입을 버는 것이 업무 규정으로 인해 불필요한 제한을 받는다.",
            "type": "radio1",
            "cssClass": "block",
            "radioType": "radio",
            "list": [
              {
                "id": "0",
                "title": "전혀 그렇지 않다.",
                "role": "selector"
              },
              {
                "id": "1",
                "title": "조금 그렇지 않다.",
                "role": "selector"
              },
              {
                "id": "2",
                "title": "그렇지 않지도, 그렇지도 않다.",
                "role": "selector"
              },
              {
                "id": "3",
                "title": "어느정도 그렇다.",
                "role": "selector"
              },
              {
                "id": "4",
                "title": "매우 그렇다.",
                "role": "selector"
              }
            ]
          },
          {
            "id": "wei55",
            "title": "55. 나와 동료들의 갈등은 심한 언쟁으로 악화된다.",
            "type": "radio1",
            "cssClass": "block",
            "radioType": "radio",
            "list": [
              {
                "id": "0",
                "title": "전혀 그렇지 않다.",
                "role": "selector"
              },
              {
                "id": "1",
                "title": "조금 그렇지 않다.",
                "role": "selector"
              },
              {
                "id": "2",
                "title": "그렇지 않지도, 그렇지도 않다.",
                "role": "selector"
              },
              {
                "id": "3",
                "title": "어느정도 그렇다.",
                "role": "selector"
              },
              {
                "id": "4",
                "title": "매우 그렇다.",
                "role": "selector"
              }
            ]
          },      
          {
            "id": "",
            "type": "more1",
            "title": "교대근무 : 만약 당신의 직업이 교대근무를 포함하고 있다면, 56 번부터 59 번 질문에 답해주십시오. 그렇지 않을 경우, 60 번 질문으로 넘어가십시오.",
            "subTitle": "",
            "description": "",
            "cssClass": "block",
            "list": [{
                "id": "1",
                "title": "교대근무를 한다.",
                "role": "selector",
                "surveys": [
                  {
                    "id": "wei56",
                    "title": "56. 전체적으로 볼 때 내 직업의 가변적인 교대 근무와 휴무일은 바람직하다.",
                    "type": "radio1",
                    "cssClass": "block",
                    "radioType": "radio",
                    "list": [
                      {
                        "id": "0",
                        "title": "전혀 그렇지 않다.",
                        "role": "selector"
                      },
                      {
                        "id": "1",
                        "title": "조금 그렇지 않다.",
                        "role": "selector"
                      },
                      {
                        "id": "2",
                        "title": "그렇지 않지도, 그렇지도 않다.",
                        "role": "selector"
                      },
                      {
                        "id": "3",
                        "title": "어느정도 그렇다.",
                        "role": "selector"
                      },
                      {
                        "id": "4",
                        "title": "매우 그렇다.",
                        "role": "selector"
                      }
                    ]
                  },
                  {
                    "id": "wei57",
                    "title": "57. 주말이 아닌 평일에 쉬는 것이 적응하기 힘들다.",
                    "type": "radio1",
                    "cssClass": "block",
                    "radioType": "radio",
                    "list": [
                      {
                        "id": "0",
                        "title": "전혀 그렇지 않다.",
                        "role": "selector"
                      },
                      {
                        "id": "1",
                        "title": "조금 그렇지 않다.",
                        "role": "selector"
                      },
                      {
                        "id": "2",
                        "title": "그렇지 않지도, 그렇지도 않다.",
                        "role": "selector"
                      },
                      {
                        "id": "3",
                        "title": "어느정도 그렇다.",
                        "role": "selector"
                      },
                      {
                        "id": "4",
                        "title": "매우 그렇다.",
                        "role": "selector"
                      }
                    ]
                  },
                  {
                    "id": "wei58",
                    "title": "58. 밤 교대근무를 하는 것이 나의 가족 또는 사회생활에 문제를 일으키지 않는다.",
                    "type": "radio1",
                    "cssClass": "block",
                    "radioType": "radio",
                    "list": [
                      {
                        "id": "0",
                        "title": "전혀 그렇지 않다.",
                        "role": "selector"
                      },
                      {
                        "id": "1",
                        "title": "조금 그렇지 않다.",
                        "role": "selector"
                      },
                      {
                        "id": "2",
                        "title": "그렇지 않지도, 그렇지도 않다.",
                        "role": "selector"
                      },
                      {
                        "id": "3",
                        "title": "어느정도 그렇다.",
                        "role": "selector"
                      },
                      {
                        "id": "4",
                        "title": "매우 그렇다.",
                        "role": "selector"
                      }
                    ]
                  },
                  {
                    "id": "wei59",
                    "title": "59. 밤 교대근무로 식생활과 수면에 방해를 받는다.",
                    "type": "radio1",
                    "cssClass": "block",
                    "radioType": "radio",
                    "list": [
                      {
                        "id": "0",
                        "title": "전혀 그렇지 않다.",
                        "role": "selector"
                      },
                      {
                        "id": "1",
                        "title": "조금 그렇지 않다.",
                        "role": "selector"
                      },
                      {
                        "id": "2",
                        "title": "그렇지 않지도, 그렇지도 않다.",
                        "role": "selector"
                      },
                      {
                        "id": "3",
                        "title": "어느정도 그렇다.",
                        "role": "selector"
                      },
                      {
                        "id": "4",
                        "title": "매우 그렇다.",
                        "role": "selector"
                      }
                    ]
                  }
                ]
              },
              {
                "id": "0",
                "title": "교대근무를 하지 않는다.",
                "role": "selector"
              }
            ]
          },
          {
            "id": "wei60",
            "title": "60. 위에 언급되지 않았지만 당신이 매일 겪는 중요한 직업적 스트레스가 있습니까? 있다면, 아래 칸에 써 주십시오",
            "type": "textarea1",
            "placeholder": "입력해주세요."
          }
        ]
      }
    ]
}